<?xml version="1.0" standalone="no"?>
<!DOCTYPE svg PUBLIC "-//W3C//DTD SVG 20010904//EN"
 "http://www.w3.org/TR/2001/REC-SVG-20010904/DTD/svg10.dtd">
<svg version="1.0" xmlns="http://www.w3.org/2000/svg"
 width="1280.000000pt" height="1072.000000pt" viewBox="0 0 1280.000000 1072.000000"
 preserveAspectRatio="xMidYMid meet">
<metadata>
Created by potrace 1.15, written by Peter Selinger 2001-2017
</metadata>
<g transform="translate(0.000000,1072.000000) scale(0.100000,-0.100000)"
fill="#5a33c1" stroke="none">
<path d="M5270 10697 c-82 -29 -116 -50 -279 -181 l-132 -106 68 0 c80 0 140
-17 328 -95 177 -73 226 -88 297 -89 70 -1 103 20 136 86 18 36 24 64 24 121
1 63 -3 81 -28 127 -36 66 -98 113 -183 140 -82 26 -150 25 -231 -3z"/>
<path d="M6650 10190 c-388 -32 -747 -190 -857 -377 -14 -24 -27 -43 -29 -43
-3 0 -33 19 -66 41 -84 58 -217 122 -313 152 -228 71 -497 61 -719 -28 l-66
-26 -87 34 c-164 65 -344 109 -525 128 -128 14 -424 6 -533 -14 -477 -90 -863
-315 -1315 -768 -223 -223 -365 -412 -460 -611 -99 -208 -116 -387 -49 -524
l20 -41 -67 -99 c-82 -123 -172 -306 -218 -444 -113 -341 -110 -654 9 -948 23
-57 30 -84 22 -87 -118 -39 -214 -35 -356 15 -167 58 -227 52 -292 -31 -19
-23 -70 -81 -115 -128 -247 -263 -316 -364 -330 -486 l-7 -53 -66 -4 c-50 -3
-74 -9 -98 -28 -75 -55 -122 -167 -130 -310 -9 -163 27 -369 87 -497 69 -149
221 -244 325 -204 16 6 26 -1 57 -43 63 -88 122 -117 359 -178 163 -42 165
-42 344 -42 l180 0 155 53 c176 61 267 101 311 139 36 29 25 33 146 -50 105
-72 259 -144 416 -194 78 -26 147 -48 153 -49 6 -2 13 -41 17 -92 22 -347 185
-731 409 -968 283 -299 656 -431 1273 -452 385 -12 649 53 798 197 l59 58 57
-45 c219 -179 511 -186 787 -18 l71 43 84 -25 c175 -51 298 -66 524 -67 159 0
233 4 302 17 457 86 801 315 1072 712 l61 89 133 -3 c241 -5 440 34 616 120
91 44 117 63 191 138 126 127 179 244 200 445 10 97 -1 263 -25 379 l-14 70
83 88 c213 226 392 559 471 874 29 116 45 262 45 409 0 259 -44 474 -156 755
-88 222 -217 482 -305 615 -149 227 -309 348 -418 316 l-31 -9 0 47 c0 150
-44 334 -100 422 -60 94 -155 159 -256 175 l-41 6 -13 77 c-63 393 -326 872
-598 1089 -116 93 -323 183 -533 233 -190 45 -463 66 -649 50z"/>
<path d="M10285 5649 c-50 -11 -113 -62 -131 -105 -20 -47 -17 -103 8 -203 30
-116 30 -290 0 -373 -32 -90 -99 -183 -235 -326 -69 -72 -141 -157 -159 -187
-31 -53 -35 -55 -63 -48 -86 23 -205 -14 -261 -80 -75 -88 -105 -226 -85 -392
26 -224 80 -361 188 -476 98 -104 230 -159 312 -131 27 10 34 7 78 -28 113
-89 268 -151 489 -194 221 -42 286 -49 452 -44 134 4 169 9 237 31 196 64 339
201 366 349 5 29 12 81 15 115 6 58 9 63 50 92 106 77 174 222 161 346 l-5 54
371 3 c365 4 373 5 455 30 97 30 176 81 219 141 113 160 41 303 -183 361 -151
39 -531 81 -969 107 -223 13 -794 7 -842 -9 -18 -6 -33 -9 -33 -6 0 3 13 31
29 62 51 102 65 165 65 292 -1 132 -24 220 -88 335 -42 74 -138 182 -203 226
-75 52 -166 74 -238 58z"/>
<path d="M3895 2623 c-311 -13 -539 -113 -619 -272 -20 -39 -26 -65 -26 -116
0 -95 40 -168 133 -241 38 -31 41 -36 38 -75 -4 -61 -55 -134 -240 -339 -274
-305 -339 -431 -349 -670 -12 -311 112 -581 343 -746 156 -111 274 -134 702
-134 498 0 666 28 845 139 54 34 59 40 111 151 113 237 141 348 141 550 0 166
-16 245 -83 409 -22 53 -62 151 -90 218 -61 149 -96 264 -121 403 -10 58 -23
119 -28 136 -9 29 -7 35 25 65 48 46 74 102 80 168 16 176 -117 288 -402 336
-84 14 -323 23 -460 18z"/>
<path d="M6675 2589 c-157 -18 -302 -65 -380 -125 -116 -88 -125 -265 -20
-381 43 -48 43 -49 30 -88 -7 -22 -18 -76 -25 -120 -19 -123 -63 -265 -135
-440 -148 -354 -160 -403 -159 -605 1 -123 6 -160 28 -245 27 -101 94 -268
144 -360 49 -90 208 -166 419 -201 149 -25 816 -26 928 -2 142 31 186 49 291
124 99 70 179 165 235 279 67 135 90 230 96 386 11 263 -50 403 -290 675 -259
293 -297 346 -297 407 0 36 6 45 59 94 188 170 139 397 -113 518 -90 43 -162
62 -306 80 -124 16 -377 18 -505 4z"/>
</g>
</svg>
